<?xml version="1.0" encoding="utf-8"?>
<!-- Generator: Adobe Illustrator 16.0.0, SVG Export Plug-In . SVG Version: 6.00 Build 0)  -->
<!DOCTYPE svg PUBLIC "-//W3C//DTD SVG 1.1//EN" "http://www.w3.org/Graphics/SVG/1.1/DTD/svg11.dtd">
<svg version="1.1" id="Layer_1" xmlns="http://www.w3.org/2000/svg" xmlns:xlink="http://www.w3.org/1999/xlink" x="0px" y="0px"
	 width="400px" height="400px" viewBox="0 0 400 400" enable-background="new 0 0 400 400" xml:space="preserve">
<g display="none">
	<g display="inline">
		<path fill="#fff" d="M373.686,276.277c-1.256,1.43-2.411,3.039-3.483,4.821c-14.999,20.717-29.194,41.166-42.588,61.337
			c-13.392,20.182-23.302,38.488-29.73,54.909c-3.575,8.219-6.253,15.452-8.036,21.696c-1.791,6.253-2.678,11.703-2.678,16.339
			c0,5.716,1.423,10.002,4.286,12.858c2.853,2.862,6.603,4.286,11.249,4.286c8.57,0,19.285-3.39,32.142-10.18
			c12.856-6.78,26.25-15.888,40.178-27.321c5.709-4.636,11.249-9.459,16.606-14.463c5.356-4.998,10.715-10.354,16.071-16.071
			l0.322,1.575c7.456-21.981,11.504-45.537,11.504-70.038c0-28.761-5.585-56.213-15.709-81.351
			c-8.889,12.087-17.773,24.347-26.652,36.781C376.097,273.248,374.932,274.854,373.686,276.277z"/>
		<path fill="#fff" d="M18.785,411.809c2.142-6.78,5.087-13.568,8.838-20.356c3.75-6.78,8.12-13.209,13.125-19.286
			l126.425-152.675c5.709-5.709,9.015-9.91,9.91-12.59c0.889-2.678-0.091-4.018-2.945-4.018c-3.576,0-9.375,1.701-17.41,5.09
			c-8.036,3.399-16.524,7.417-25.446,12.054c-0.72,0-1.432,0.184-2.143,0.536c-0.719,0.361-1.255,0.72-1.608,1.071
			c-6.075,2.863-11.968,5.717-17.677,8.572c-5.716,2.863-10.538,5.181-14.463,6.963c-5.358,2.503-11.167,5.272-17.412,8.304
			c-6.252,3.039-12.772,6.16-19.553,9.375c-2.862,1.432-5.624,2.679-8.303,3.75c-2.679,1.072-5.274,2.327-7.767,3.75
			c-14.648,6.077-28.577,11.519-41.785,16.339c-5.35,1.95-10.134,3.5-14.371,4.662c-1.602,10.659-2.44,21.57-2.44,32.675
			c0,41,11.333,79.349,31.024,112.101c0.083-0.618,0.155-1.234,0.251-1.853C15.746,421.636,16.994,416.813,18.785,411.809z"/>
		<path fill="#fff" d="M354.4,462.433c-5.182,3.398-10.271,6.879-15.268,10.445c-13.577,8.22-26.519,15.185-38.837,20.892
			c-12.322,5.71-21.522,8.572-27.59,8.572c-16.791,0-30.091-2.947-39.91-8.839c-9.826-5.893-14.916-16.154-15.268-30.803
			c0-14.64,5.709-34.554,17.143-59.732c11.426-25.177,29.64-56.691,54.642-94.55v-0.535c-9.643,9.291-22.415,21.611-38.304,36.962
			c-15.895,15.36-32.769,31.255-50.624,47.678c-2.142,2.142-4.376,4.285-6.695,6.428c-2.325,2.143-4.736,4.286-7.231,6.429
			c-23.93,21.788-46.699,41.249-68.301,58.392c-21.612,17.141-36.696,25.888-45.266,26.249c-0.361,0-0.804,0-1.34,0
			s-0.988-0.185-1.339-0.537c-0.144,0-0.281-0.005-0.424-0.005c36.608,27.872,82.295,44.43,131.856,44.43
			c71.186,0,134.393-34.144,174.153-86.939c-2.151,1.659-4.374,3.332-6.667,5.016C364.486,455.562,359.573,459.042,354.4,462.433z"
			/>
		<path fill="#fff" d="M138.246,129.494c2.853-0.709,5.707-1.338,8.57-1.874c2.854-0.536,5.893-1.155,9.106-1.874
			c4.637-1.072,9.375-2.144,14.195-3.216c4.822-1.069,9.552-2.317,14.198-3.749c7.139-1.782,13.743-3.123,19.819-4.019
			c6.068-0.886,11.427-1.514,16.072-1.874c13.567,0,23.21,3.307,28.928,9.91c5.709,6.613,8.571,16.164,8.571,28.661
			c0,3.214-0.185,6.696-0.537,10.445c-0.359,3.751-0.896,7.592-1.606,11.519c-1.791,10.712-7.953,23.929-18.481,39.641
			c-10.538,15.719-22.592,31.965-36.16,48.749c-2.503,3.213-5.09,6.428-7.769,9.642c-2.678,3.214-5.272,6.252-7.768,9.108
			c-13.216,16.07-25.896,31.069-38.033,44.998c-12.146,13.927-21.078,25.178-26.786,33.75c-8.93,13.216-15.268,23.663-19.018,31.338
			c-3.75,7.685-5.624,13.31-5.624,16.874c-0.36,1.432-0.185,2.595,0.536,3.483c0.71,0.895,1.781,1.339,3.214,1.339
			c3.565,0.36,9.105-1.691,16.606-6.161c7.5-4.46,15.351-9.725,23.57-15.803c1.423-1.071,2.855-2.142,4.286-3.214
			c1.423-1.071,2.854-2.318,4.285-3.751c1.784-1.07,3.566-2.226,5.357-3.48c1.783-1.247,3.391-2.586,4.82-4.018
			c5.709-4.638,11.426-9.375,17.144-14.195c5.709-4.822,11.425-9.911,17.143-15.269c9.993-8.571,19.905-17.586,29.731-27.053
			c9.817-9.457,19.553-18.833,29.195-28.125c28.207-28.207,54.281-54.909,78.213-80.086c14.049-14.788,26.364-27.121,36.97-37.043
			c-39.96-46.526-99.21-76.004-165.353-76.004c-54.771,0-104.819,20.216-143.1,53.584c2.951-1.162,5.944-2.238,8.988-3.214
			C90.382,141.197,113.955,134.852,138.246,129.494z"/>
	</g>
	<g display="inline">
		<path fill="#fff" d="M-2.225,673.278V568.986H-18.24v109.439c0,2.49-0.099,4.914-0.284,7.28h15.711
			C-2.432,681.707-2.225,677.575-2.225,673.278z"/>
		<path fill="#fff" d="M-34.637,724.756c-10.933,11.821-25.105,17.731-42.518,17.731c-17.541,0-31.809-5.94-42.803-17.826
			c-6.394-6.91-10.914-15.019-13.589-24.313h-15.556c3.21,13.354,9.01,24.671,17.419,33.941
			c13.6,14.999,31.775,22.497,54.529,22.497c22.751,0,40.927-7.498,54.53-22.497c8.406-9.271,14.208-20.588,17.419-33.941h-15.891
			C-23.754,709.716-28.258,717.857-34.637,724.756z"/>
		<path fill="#fff" d="M-136.449,678.426V568.986h-15.634v104.292c0,4.297,0.207,8.429,0.587,12.428h15.338
			C-136.348,683.339-136.449,680.916-136.449,678.426z"/>
		<path fill="#fff" d="M161.458,675.185c-8.327-8.515-20.562-14.997-36.702-19.447l-37.178-10.486
			c-12.966-3.686-22.437-8.132-28.41-13.347c-5.975-5.209-8.96-11.564-8.96-19.065c0-9.404,3.081-16.587,9.248-21.544
			c6.162-4.959,15.157-7.437,26.978-7.437h73.786v-14.872H92.344c-18.686,0-33.049,3.719-43.089,11.153
			c-10.042,7.437-15.063,18.085-15.063,31.937c0,11.695,3.749,21.387,11.249,29.075c7.5,7.692,19.066,13.698,34.701,18.018
			l35.654,9.915c14.742,3.94,25.453,8.961,32.125,15.062c0.556,0.508,1.078,1.03,1.588,1.561h19.652
			C167.197,681.941,164.631,678.433,161.458,675.185z"/>
		<path fill="#fff" d="M157.931,707.216c0,9.661-3.879,17.225-11.63,22.688c-7.755,5.467-18.622,8.199-32.603,8.199H33.811
			v15.252h68.256c24.406,0,42.485-3.876,54.244-11.63c11.754-7.753,17.636-19.64,17.636-35.652c0-1.957-0.122-3.862-0.339-5.725
			h-16.35C157.704,702.532,157.931,704.82,157.931,707.216z"/>
		<path fill="#fff" d="M217.035,660.885c0-22.751,7.466-41.975,22.403-57.674c14.934-15.698,33.205-23.547,54.814-23.547
			c11.693,0,22.37,2.479,32.031,7.435c9.658,4.957,17.984,12.202,24.977,21.736L237.245,685.1l0.365,0.606h24.724l110.852-74.012
			c-9.151-15.253-20.37-26.756-33.652-34.509s-28.249-11.631-44.899-11.631c-12.965,0-25.104,2.354-36.416,7.054
			c-11.314,4.705-21.419,11.569-30.314,20.593c-9.027,9.279-15.891,19.703-20.591,31.267c-4.705,11.569-7.056,23.833-7.056,36.798
			c0,8.408,1.016,16.553,3.031,24.44h17.127C218.172,677.96,217.035,669.69,217.035,660.885z"/>
		<path fill="#1A6B8A" d="M386.342,663.554h-16.777c-0.519,7.898-1.78,15.272-3.748,22.152h17.285
			C384.825,678.724,385.907,671.341,386.342,663.554z"/>
		<path fill="#fff" d="M346.112,720.086c-14.108,14.426-31.649,21.64-52.622,21.64c-21.354,0-39.437-7.817-54.242-23.453
			c-5.242-5.532-9.537-11.514-12.924-17.924h-18.011c4.656,10.672,11.184,20.271,19.59,28.794c8.77,9.025,18.779,15.89,30.028,20.59
			c11.249,4.702,23.101,7.055,35.559,7.055c25.548,0,47.027-8.706,64.443-26.121c8.831-8.829,15.613-18.937,20.358-30.317h-18.141
			C356.499,707.649,351.832,714.237,346.112,720.086z"/>
		<path fill="#fff" d="M535.629,707.216c0,9.661-3.879,17.225-11.63,22.688c-7.755,5.467-18.622,8.199-32.603,8.199h-79.888
			v15.252h68.257c24.404,0,42.484-3.876,54.243-11.63c11.755-7.753,17.636-19.64,17.636-35.652c0-1.957-0.12-3.862-0.339-5.725
			h-16.348C535.401,702.532,535.629,704.82,535.629,707.216z"/>
		<path fill="#fff" d="M539.156,675.185c-8.327-8.515-20.563-14.997-36.702-19.447l-37.179-10.486
			c-12.965-3.686-22.435-8.132-28.409-13.347c-5.976-5.209-8.96-11.564-8.96-19.065c0-9.404,3.079-16.587,9.247-21.544
			c6.162-4.959,15.157-7.437,26.978-7.437h73.786v-14.872h-67.875c-18.685,0-33.051,3.719-43.09,11.153
			c-10.041,7.437-15.062,18.085-15.062,31.937c0,11.695,3.747,21.387,11.248,29.075c7.499,7.692,19.066,13.698,34.701,18.018
			l35.653,9.915c14.743,3.94,25.453,8.961,32.127,15.062c0.554,0.508,1.079,1.03,1.587,1.561h19.652
			C544.896,681.941,542.331,678.433,539.156,675.185z"/>
	</g>
	<g display="inline">
		<path fill="#fff" d="M-73.553,811.375c-1.36,0-2.72-0.51-3.825-1.785c2.295-1.36,3.825-4.506,3.825-7.311
			c0-2.976-1.7-5.696-6.206-5.696c-4.675,0-7.906,2.721-7.906,7.396c0,13.347,19.126,14.111,19.126,33.068
			c0,11.985-8.84,19.722-22.527,19.722c-6.801,0-18.787-1.445-18.787-13.687c0-7.991,5.95-12.241,12.496-12.241
			c3.825,0,6.206,1.275,6.886,4.336c-6.886,0.595-9.946,3.484-9.946,9.351c0,5.695,4.42,8.161,8.416,8.161
			c6.715,0,9.351-5.865,9.351-12.157c0-15.981-18.362-19.467-18.362-32.133c0-8.926,10.116-15.812,20.232-15.812
			c4.505,0,14.281,0.681,14.281,10.201C-66.497,807.635-69.132,811.375-73.553,811.375z"/>
		<path fill="#fff" d="M-32.243,825.486c0.51,0.51,1.275,0.765,2.465,0.765c3.995,0,5.78-2.89,8.926-4.165l0.34,1.785
			c-2.635,3.315-7.056,6.121-11.986,7.481c-1.615,17.086-10.881,25.501-19.382,25.501c-9.096,0-13.006-3.824-13.006-13.94
			c0-20.912,10.626-29.923,22.357-29.923C-34.453,812.99-32.413,819.281-32.243,825.486z M-38.788,832.202
			c-2.465,0-3.57-1.785-3.57-3.826c0-2.464,1.445-5.1,3.74-5.95c-0.255-2.805-1.19-4.42-3.57-4.42
			c-7.991,0-11.391,17.342-11.391,24.142c0,5.102,2.38,6.461,5.696,6.461C-42.699,848.608-39.809,840.447-38.788,832.202z"/>
		<path fill="#fff" d="M7.199,842.743c-0.255,0.935-0.425,1.87-0.425,2.72c0,1.871,0.935,3.146,4.25,3.146
			c3.4,0,7.821-4.761,11.221-7.48h2.89c-3.91,3.91-13.516,15.217-20.146,15.217c-6.546,0-10.541-2.891-10.541-9.266
			c0-1.275,0.169-2.721,0.51-4.336l5.441-25.503H-9.972l-9.691,45.905c-2.55,12.156-9.861,14.451-15.472,14.451
			c-5.186,0-10.031-3.655-10.031-9.181c0-7.821,6.631-10.286,14.707-12.752l10.201-48.539c2.55-12.156,9.946-14.451,15.471-14.451
			c7.651,0,13.687,2.805,21.337,5.865l-3.23,15.301h7.141l-0.765,3.4H12.64L7.199,842.743z M-37.09,870.03
			c1.701,0,3.996-1.614,5.016-6.63l1.02-4.931c-5.355,1.785-9.436,4.165-9.436,8.756C-40.49,868.416-38.96,870.03-37.09,870.03z
			 M4.139,799.389c-2.21-0.936-4.675-1.36-5.78-1.36c-1.87,0-4.591,1.021-5.78,6.716l-1.871,9.096H1.079L4.139,799.389z"/>
		<path fill="#fff" d="M76.222,819.791c0,13.262-6.715,36.554-23.887,36.554c-5.781,0-9.521-2.211-10.371-7.057
			c-3.996,3.656-8.586,7.057-12.157,7.057c-6.545,0-10.625-2.891-10.625-9.266c0-1.275,0.169-2.721,0.51-4.336l6.121-28.903h12.241
			l-6.121,28.903c-0.17,0.935-0.34,1.87-0.34,2.636c0,1.87,0.851,3.229,4.25,3.229c1.785,0,3.911-1.274,5.951-2.975
			c0-0.851,0.17-1.87,0.425-2.891l6.121-28.903h12.241l-6.12,28.903c-0.255,1.19-0.425,2.21-0.425,3.146
			c0,1.615,0.765,2.72,3.23,2.72c8.331,0,14.026-18.616,14.026-27.882c-0.51,0.17-1.275,0.339-1.785,0.339
			c-2.465,0-3.57-2.38-3.57-4.76c0-1.785,2.041-4.165,4.845-4.165C74.437,812.141,76.222,815.37,76.222,819.791z"/>
		<path fill="#fff" d="M116.682,813.84l-6.12,28.903c-0.17,0.935-0.34,1.87-0.34,2.636c0,1.87,0.85,3.229,4.251,3.229
			c3.4,0,7.82-4.761,11.22-7.48h2.891c-3.911,3.91-13.516,15.217-20.146,15.217c-5.526,0-9.266-2.041-10.372-6.461
			c-2.55,3.485-6.375,6.97-11.561,6.97c-8.161,0-10.541-5.779-10.541-10.795c0-14.622,5.271-32.134,22.272-32.134
			c2.04,0,4.165,0.851,5.695,2.125l0.51-2.21H116.682z M87.439,843.764c0,5.1,2.805,6.035,4.93,6.035c1.955,0,3.825-1.87,5.44-4.251
			c0.085-0.85,0.255-1.784,0.511-2.805l4.76-22.527c-1.36-1.189-2.975-1.53-4.166-1.53C92.54,818.686,87.439,832.202,87.439,843.764
			z"/>
		<path fill="#fff" d="M138.527,813.84l-0.936,4.251c3.061-2.38,6.461-4.251,10.031-4.251c3.825,0,6.12,2.21,6.12,5.441
			c0,2.975-2.209,6.631-6.375,6.631c-4.761,0-2.381-5.611-4.931-5.611c-2.55,0-3.91,0.935-5.865,2.721l-7.056,33.323h-12.241
			l9.011-42.505H138.527z"/>
		<path fill="#fff" d="M151.019,842.828c0-10.796,4.591-29.753,20.062-29.753c6.971,0,10.881,2.891,10.881,8.841
			c0,10.371-11.136,16.321-19.211,17.342c-0.17,1.36-0.255,2.635-0.255,3.655c0,5.61,2.806,7.311,6.121,7.311
			c3.995,0,7.396-2.295,10.881-5.44c0,9.182-7.396,11.562-15.896,11.562C155.44,856.345,151.019,850.139,151.019,842.828z
			 M173.887,817.581c-4.761,0-8.671,9.605-10.456,17.597c7.82-0.086,13.346-6.802,13.431-12.837
			C176.862,820.556,176.437,817.581,173.887,817.581z"/>
		<path fill="#fff" d="M259.911,821.235c0,4.677-5.95,10.627-12.922,11.817c-6.46,23.292-18.191,23.801-26.521,23.801
			c-11.732,0-17.598-8.415-17.598-17.171c0-8.161,5.101-16.661,15.387-18.786c-5.78-3.146-8.415-8.076-8.415-12.922
			c0-7.735,6.8-15.387,18.871-15.387c7.906,0,15.642,3.146,15.642,11.392c0,4.505-1.615,7.82-5.951,7.82
			c-1.359,0-3.229-0.34-4.845-2.21c2.125-0.595,3.74-4.846,3.74-6.971c0-1.36-0.17-6.291-5.61-6.291
			c-6.205,0-10.371,4.761-10.371,10.456c0,4.931,3.23,10.456,11.221,14.026c-10.796,4.421-14.791,11.222-14.791,17.087
			c0,6.205,4.505,11.307,9.946,11.307c5.95,0,12.751-3.57,15.387-16.067c-2.126-0.084-4.081-0.425-6.036-0.425
			c-3.74,0-6.376,1.275-7.99,3.825l-0.596-0.085c1.7-6.97,7.65-11.985,16.406-11.985c2.381,0,4.336,0.425,6.461,0.425
			c3.146,0,6.631-1.105,8.076-3.656H259.911z"/>
		<path fill="#fff" d="M310.485,800.578l-10.201,47.69c1.615,1.19,3.229,1.7,4.845,1.7c10.116,0,16.322-20.486,16.322-36.809
			c0-10.626-1.955-16.662-11.731-16.662c-13.771,0-22.952,7.736-22.952,20.658c0,4.334,1.105,5.015,1.19,5.779
			c-5.866,0-9.097-2.125-9.097-8.245c0-11.306,15.642-22.103,29.838-22.103c19.638,0,24.482,10.967,24.482,22.952
			c0,21.933-10.965,41.909-23.547,41.909c-3.23,0-6.716-1.359-10.371-4.505l-0.68,3.4h-12.241l11.561-54.065L310.485,800.578z"/>
		<path fill="#fff" d="M351.625,850.224c3.23,0,6.121-2.295,8.586-6.206c0.34-6.035,3.315-9.52,6.461-9.775
			c3.06-5.525,5.016-13.091,6.461-19.552l12.326-2.55v1.189c0,14.026,5.78,18.277,5.78,28.223c0,0.595,0,1.19-0.085,1.785
			c2.38-2.125,4.505-4.335,5.525-5.525l2.21,2.89c-2.38,1.871-5.78,4.846-9.181,7.736c-2.211,4.676-7.056,7.906-14.962,7.906
			c-8.161,0-12.836-1.955-14.196-7.396c-3.484,4.42-7.905,7.396-14.791,7.396c-8.161,0-12.581-6.206-12.581-13.517
			c0-10.796,4.591-29.753,20.063-29.753c6.97,0,10.881,2.891,10.881,8.841c0,10.371-11.137,16.321-19.212,17.342
			c-0.171,1.36-0.255,2.635-0.255,3.655C344.655,848.523,348.31,850.224,351.625,850.224z M356.046,817.581
			c-4.761,0-8.671,9.605-10.456,17.597c7.82-0.086,13.347-6.802,13.431-12.837C359.021,820.556,358.596,817.581,356.046,817.581z
			 M367.606,844.868c-1.021,0-2.04-0.255-3.06-0.766c0,5.016,2.721,7.227,7.226,7.227c2.89,0,7.056-3.57,7.056-10.116
			c0-5.271-3.825-9.776-3.995-20.402c-1.36,4.166-2.551,9.606-4.421,13.856c2.04,0.681,2.805,2.21,2.805,4.761
			C373.217,842.658,370.582,844.868,367.606,844.868z"/>
		<path fill="#fff" d="M412.572,813.84l-6.122,28.903c-0.17,0.935-0.339,1.87-0.339,2.636c0,1.87,0.85,3.229,4.25,3.229
			s7.82-4.761,11.222-7.48h2.89c-3.91,3.91-13.517,15.217-20.147,15.217c-6.545,0-10.626-2.891-10.626-9.266
			c0-1.275,0.17-2.721,0.511-4.336l6.12-28.903H412.572z M408.661,795.818c3.74,0,6.801,3.061,6.801,6.801s-3.061,6.716-6.801,6.716
			s-6.716-2.976-6.716-6.716S404.921,795.818,408.661,795.818z"/>
		<path fill="#fff" d="M456.519,813.84l-7.99,37.659c5.44-2.806,10.285-6.631,13.091-13.006l-0.34,6.715
			c-1.104,5.525-7.056,8.671-13.771,11.137l-1.445,6.801c-2.55,12.156-9.69,14.451-15.302,14.451c-5.186,0-9.521-2.72-9.521-8.246
			c0-6.971,6.205-9.776,13.856-12.581l0.851-3.825c-2.551,2.295-5.866,4.08-9.776,4.08c-8.161,0-10.541-6.886-10.541-11.901
			c0-11.731,4.505-31.198,20.997-31.198c3.061,0,5.525,1.7,6.715,3.995l0.936-4.08H456.519z M428.807,870.966
			c1.699,0,3.91-2.55,4.93-7.565l0.511-2.551c-4.846,1.87-8.331,3.996-8.331,7.311C425.916,869.351,426.936,870.966,428.807,870.966
			z M426.086,843.509c0,4.079,2.466,5.354,6.205,5.354c1.701,0,3.485-1.275,5.102-2.975l5.015-23.548
			c-1.36-2.55-3.399-3.655-4.845-3.655C429.316,818.686,426.086,836.197,426.086,843.509z"/>
		<path fill="#fff" d="M490.18,856.345c-5.525,0-8.671-2.891-8.671-9.266c0-1.361,0.17-2.721,0.51-4.336l3.23-15.302
			c0.17-0.766,0.255-1.529,0.255-2.21c0-3.061-1.615-5.016-3.91-5.016c-2.041,0-3.57,0.595-5.356,1.785l-7.225,34.344h-12.242
			l9.011-42.505h12.242l-1.021,4.591c3.485-2.55,7.396-4.591,11.136-4.591c4.677,0,9.776,4.931,9.776,10.711
			c0,0.681-0.085,1.275-0.17,1.955c-0.425,2.806-4.08,17.767-4.08,19.638c0,1.444,0.68,2.635,3.146,2.635
			c0.595,0,1.529,0,2.21-0.255C496.641,855.835,493.07,856.345,490.18,856.345z"/>
	</g>
</g>
<g>
	<g>
		<path fill="#fff" d="M346.098,168.038c-1.065,1.214-2.046,2.579-2.956,4.091c-12.728,17.579-24.772,34.932-36.138,52.048
			c-11.363,17.125-19.773,32.659-25.229,46.594c-3.033,6.975-5.305,13.111-6.818,18.41c-1.52,5.306-2.272,9.93-2.272,13.864
			c0,4.851,1.208,8.488,3.638,10.911c2.42,2.428,5.602,3.636,9.545,3.636c7.272,0,16.364-2.877,27.273-8.638
			c10.91-5.753,22.275-13.481,34.094-23.183c4.844-3.935,9.545-8.026,14.091-12.273c4.545-4.24,9.092-8.786,13.638-13.637
			l0.273,1.336c6.326-18.652,9.762-38.64,9.762-59.431c0-24.404-4.74-47.699-13.33-69.03c-7.543,10.257-15.082,20.66-22.616,31.21
			C348.144,165.468,347.155,166.831,346.098,168.038z"/>
		<path fill="#fff" d="M44.946,283.044c1.817-5.753,4.317-11.513,7.5-17.273c3.182-5.752,6.89-11.208,11.137-16.364
			l107.278-129.553c4.844-4.845,7.649-8.408,8.409-10.684c0.754-2.271-0.077-3.409-2.499-3.409c-3.035,0-7.956,1.444-14.773,4.319
			c-6.819,2.885-14.022,6.295-21.593,10.229c-0.611,0-1.215,0.155-1.818,0.454c-0.61,0.307-1.065,0.611-1.365,0.908
			c-5.155,2.43-10.156,4.853-15,7.273c-4.851,2.43-8.942,4.397-12.273,5.909c-4.546,2.124-9.476,4.474-14.775,7.046
			c-5.305,2.579-10.838,5.228-16.592,7.955c-2.428,1.215-4.772,2.273-7.045,3.183c-2.273,0.91-4.475,1.974-6.59,3.182
			c-12.43,5.156-24.249,9.773-35.457,13.864c-4.54,1.655-8.599,2.971-12.195,3.956c-1.359,9.045-2.07,18.303-2.07,27.727
			c0,34.791,9.616,67.332,26.326,95.124c0.07-0.524,0.131-1.048,0.213-1.573C42.368,291.383,43.427,287.29,44.946,283.044z"/>
		<path fill="#fff" d="M329.733,326.001c-4.397,2.884-8.716,5.838-12.956,8.864c-11.521,6.974-22.502,12.884-32.955,17.728
			c-10.455,4.845-18.262,7.273-23.41,7.273c-14.248,0-25.534-2.501-33.866-7.5c-8.339-5-12.657-13.708-12.956-26.138
			c0-12.424,4.845-29.32,14.547-50.686c9.695-21.363,25.15-48.105,46.366-80.23v-0.453c-8.183,7.883-19.021,18.337-32.503,31.363
			c-13.487,13.034-27.806,26.521-42.957,40.458c-1.817,1.816-3.713,3.636-5.681,5.454c-1.973,1.818-4.019,3.637-6.136,5.454
			c-20.306,18.488-39.626,35.002-57.957,49.55c-18.339,14.544-31.138,21.968-38.411,22.272c-0.306,0-0.682,0-1.137,0
			s-0.838-0.156-1.136-0.456c-0.122,0-0.239-0.003-0.359-0.003c31.063,23.649,69.832,37.701,111.886,37.701
			c60.404,0,114.039-28.973,147.777-73.772c-1.825,1.407-3.711,2.827-5.656,4.256C338.291,320.171,334.123,323.124,329.733,326.001z
			"/>
		<path fill="#fff" d="M146.315,43.485c2.42-0.602,4.843-1.135,7.272-1.59c2.422-0.455,5-0.98,7.727-1.591
			c3.935-0.909,7.955-1.818,12.045-2.729c4.092-0.907,8.105-1.966,12.048-3.181c6.058-1.512,11.662-2.649,16.818-3.41
			c5.148-0.752,9.695-1.285,13.638-1.591c11.513,0,19.694,2.807,24.546,8.41c4.846,5.61,7.273,13.716,7.273,24.319
			c0,2.728-0.156,5.682-0.455,8.863c-0.305,3.184-0.76,6.442-1.363,9.774c-1.52,9.09-6.748,20.306-15.683,33.638
			c-8.942,13.339-19.171,27.124-30.684,41.366c-2.124,2.727-4.319,5.455-6.592,8.181c-2.272,2.729-4.474,5.306-6.591,7.729
			c-11.214,13.636-21.975,26.363-32.273,38.183c-10.306,11.817-17.885,21.364-22.729,28.638
			c-7.578,11.215-12.956,20.079-16.138,26.592c-3.182,6.521-4.771,11.295-4.771,14.319c-0.306,1.215-0.157,2.202,0.455,2.955
			c0.603,0.76,1.512,1.137,2.727,1.137c3.025,0.306,7.727-1.435,14.092-5.229c6.364-3.784,13.026-8.252,20-13.409
			c1.208-0.908,2.423-1.817,3.637-2.728c1.207-0.909,2.422-1.967,3.636-3.183c1.514-0.908,3.026-1.889,4.546-2.953
			c1.513-1.058,2.877-2.194,4.09-3.409c4.844-3.937,9.695-7.955,14.547-12.046c4.845-4.092,9.695-8.41,14.546-12.957
			c8.479-7.272,16.891-14.922,25.229-22.955c8.331-8.025,16.592-15.981,24.774-23.866c23.935-23.935,46.061-46.592,66.367-67.956
			c11.921-12.549,22.371-23.014,31.371-31.434c-33.908-39.479-84.186-64.494-140.311-64.494c-46.477,0-88.944,17.154-121.427,45.47
			c2.504-0.985,5.044-1.899,7.627-2.728C105.701,53.416,125.703,48.031,146.315,43.485z"/>
	</g>
	<g display="none">
		<path display="inline" fill="#fff" d="M605.211,165.039V60.747h-16.016v109.439c0,2.49-0.1,4.914-0.283,7.28h15.711
			C605.004,173.468,605.211,169.336,605.211,165.039z"/>
		<path display="inline" fill="#fff" d="M572.799,216.517c-10.934,11.821-25.105,17.731-42.518,17.731
			c-17.541,0-31.81-5.94-42.803-17.826c-6.395-6.91-10.914-15.019-13.59-24.313h-15.556c3.21,13.354,9.011,24.671,17.419,33.941
			c13.6,14.999,31.775,22.497,54.529,22.497c22.75,0,40.926-7.498,54.529-22.497c8.406-9.271,14.207-20.588,17.42-33.941h-15.893
			C583.682,201.477,579.178,209.618,572.799,216.517z"/>
		<path display="inline" fill="#fff" d="M470.986,170.187V60.747h-15.635v104.292c0,4.297,0.207,8.429,0.588,12.428h15.338
			C471.088,175.1,470.986,172.677,470.986,170.187z"/>
		<path display="inline" fill="#fff" d="M768.893,166.945c-8.326-8.515-20.561-14.997-36.701-19.447l-37.178-10.486
			c-12.967-3.686-22.438-8.132-28.41-13.347c-5.975-5.209-8.961-11.564-8.961-19.065c0-9.404,3.082-16.587,9.248-21.544
			c6.162-4.959,15.156-7.437,26.977-7.437h73.787V60.747h-67.875c-18.688,0-33.049,3.719-43.09,11.153
			c-10.041,7.437-15.063,18.085-15.063,31.937c0,11.695,3.748,21.387,11.248,29.075c7.5,7.692,19.066,13.698,34.701,18.018
			l35.654,9.915c14.742,3.94,25.453,8.961,32.125,15.062c0.557,0.508,1.078,1.03,1.588,1.561h19.652
			C774.633,173.702,772.066,170.193,768.893,166.945z"/>
		<path display="inline" fill="#fff" d="M765.365,198.977c0,9.661-3.879,17.225-11.629,22.688
			c-7.756,5.467-18.623,8.199-32.604,8.199h-79.887v15.252h68.256c24.406,0,42.484-3.876,54.244-11.63
			c11.754-7.753,17.635-19.64,17.635-35.652c0-1.957-0.121-3.862-0.338-5.725h-16.35
			C765.139,194.293,765.365,196.581,765.365,198.977z"/>
		<path display="inline" fill="#fff" d="M824.471,152.646c0-22.751,7.465-41.975,22.402-57.674
			c14.934-15.698,33.205-23.547,54.814-23.547c11.693,0,22.371,2.479,32.031,7.435c9.658,4.957,17.984,12.202,24.977,21.736
			L844.68,176.86l0.365,0.606h24.725l110.852-74.012c-9.152-15.253-20.371-26.756-33.652-34.509
			c-13.283-7.753-28.25-11.631-44.9-11.631c-12.965,0-25.104,2.354-36.416,7.054c-11.314,4.705-21.418,11.569-30.314,20.593
			c-9.027,9.279-15.891,19.703-20.59,31.267c-4.705,11.569-7.057,23.833-7.057,36.798c0,8.408,1.016,16.553,3.031,24.44h17.127
			C825.607,169.721,824.471,161.451,824.471,152.646z"/>
		<path display="inline" fill="#1A6B8A" d="M993.777,155.314H977c-0.52,7.898-1.781,15.272-3.748,22.152h17.285
			C992.26,170.484,993.342,163.102,993.777,155.314z"/>
		<path display="inline" fill="#fff" d="M953.547,211.847c-14.107,14.426-31.648,21.64-52.621,21.64
			c-21.354,0-39.438-7.817-54.242-23.453c-5.242-5.532-9.537-11.514-12.924-17.924h-18.012c4.656,10.672,11.184,20.271,19.59,28.794
			c8.77,9.025,18.779,15.89,30.029,20.59c11.248,4.702,23.1,7.055,35.559,7.055c25.547,0,47.027-8.706,64.443-26.121
			c8.83-8.829,15.613-18.937,20.357-30.317h-18.141C963.934,199.41,959.268,205.998,953.547,211.847z"/>
		<path display="inline" fill="#fff" d="M1143.064,198.977c0,9.661-3.879,17.225-11.631,22.688
			c-7.754,5.467-18.621,8.199-32.602,8.199h-79.889v15.252h68.258c24.404,0,42.484-3.876,54.242-11.63
			c11.756-7.753,17.637-19.64,17.637-35.652c0-1.957-0.121-3.862-0.34-5.725h-16.348
			C1142.836,194.293,1143.064,196.581,1143.064,198.977z"/>
		<path display="inline" fill="#fff" d="M1146.592,166.945c-8.328-8.515-20.563-14.997-36.703-19.447l-37.178-10.486
			c-12.965-3.686-22.436-8.132-28.41-13.347c-5.975-5.209-8.959-11.564-8.959-19.065c0-9.404,3.078-16.587,9.246-21.544
			c6.162-4.959,15.158-7.437,26.979-7.437h73.785V60.747h-67.875c-18.684,0-33.051,3.719-43.09,11.153
			c-10.041,7.437-15.061,18.085-15.061,31.937c0,11.695,3.746,21.387,11.248,29.075c7.498,7.692,19.066,13.698,34.701,18.018
			l35.652,9.915c14.744,3.94,25.453,8.961,32.127,15.062c0.555,0.508,1.08,1.03,1.588,1.561h19.652
			C1152.33,173.702,1149.766,170.193,1146.592,166.945z"/>
	</g>
	<g display="none">
		<path display="inline" fill="#fff" d="M533.883,303.136c-1.36,0-2.721-0.51-3.826-1.785c2.295-1.36,3.826-4.506,3.826-7.311
			c0-2.976-1.701-5.696-6.206-5.696c-4.675,0-7.905,2.721-7.905,7.396c0,13.347,19.126,14.111,19.126,33.068
			c0,11.985-8.841,19.722-22.526,19.722c-6.801,0-18.787-1.445-18.787-13.687c0-7.991,5.95-12.241,12.496-12.241
			c3.825,0,6.205,1.275,6.886,4.336c-6.886,0.595-9.946,3.484-9.946,9.351c0,5.695,4.42,8.161,8.416,8.161
			c6.715,0,9.352-5.865,9.352-12.157c0-15.981-18.362-19.467-18.362-32.133c0-8.926,10.116-15.812,20.231-15.812
			c4.506,0,14.281,0.681,14.281,10.201C540.938,299.396,538.303,303.136,533.883,303.136z"/>
		<path display="inline" fill="#fff" d="M575.193,317.247c0.51,0.51,1.273,0.765,2.465,0.765c3.994,0,5.779-2.89,8.926-4.165
			l0.34,1.785c-2.635,3.315-7.057,6.121-11.986,7.481c-1.615,17.086-10.881,25.501-19.382,25.501
			c-9.096,0-13.007-3.824-13.007-13.94c0-20.912,10.627-29.923,22.357-29.923C572.982,304.751,575.023,311.042,575.193,317.247z
			 M568.646,323.963c-2.465,0-3.57-1.785-3.57-3.826c0-2.464,1.445-5.1,3.74-5.95c-0.254-2.805-1.189-4.42-3.57-4.42
			c-7.99,0-11.391,17.342-11.391,24.142c0,5.102,2.38,6.461,5.695,6.461C564.736,340.369,567.627,332.208,568.646,323.963z"/>
		<path display="inline" fill="#fff" d="M614.635,334.504c-0.256,0.935-0.426,1.87-0.426,2.72c0,1.871,0.936,3.146,4.25,3.146
			c3.4,0,7.822-4.761,11.223-7.48h2.889c-3.91,3.91-13.516,15.217-20.146,15.217c-6.545,0-10.541-2.891-10.541-9.266
			c0-1.275,0.17-2.721,0.51-4.336l5.441-25.503h-10.371l-9.691,45.905c-2.549,12.156-9.859,14.451-15.471,14.451
			c-5.186,0-10.031-3.655-10.031-9.181c0-7.821,6.631-10.286,14.707-12.752l10.201-48.539c2.549-12.156,9.945-14.451,15.471-14.451
			c7.65,0,13.686,2.805,21.338,5.865l-3.23,15.301h7.141l-0.766,3.4h-7.057L614.635,334.504z M570.346,361.791
			c1.699,0,3.996-1.614,5.016-6.63l1.02-4.931c-5.355,1.785-9.436,4.165-9.436,8.756
			C566.945,360.177,568.475,361.791,570.346,361.791z M611.574,291.149c-2.211-0.936-4.676-1.36-5.781-1.36
			c-1.869,0-4.59,1.021-5.779,6.716l-1.871,9.096h10.371L611.574,291.149z"/>
		<path display="inline" fill="#fff" d="M683.656,311.552c0,13.262-6.715,36.554-23.887,36.554c-5.779,0-9.52-2.211-10.369-7.057
			c-3.996,3.656-8.588,7.057-12.158,7.057c-6.545,0-10.625-2.891-10.625-9.266c0-1.275,0.17-2.721,0.51-4.336l6.121-28.903h12.24
			l-6.119,28.903c-0.17,0.935-0.342,1.87-0.342,2.636c0,1.87,0.852,3.229,4.252,3.229c1.785,0,3.91-1.274,5.949-2.975
			c0-0.851,0.172-1.87,0.426-2.891l6.121-28.903h12.24l-6.119,28.903c-0.256,1.19-0.426,2.21-0.426,3.146
			c0,1.615,0.766,2.72,3.23,2.72c8.33,0,14.025-18.616,14.025-27.882c-0.51,0.17-1.275,0.339-1.785,0.339
			c-2.465,0-3.57-2.38-3.57-4.76c0-1.785,2.041-4.165,4.846-4.165C681.871,303.901,683.656,307.131,683.656,311.552z"/>
		<path display="inline" fill="#fff" d="M724.117,305.601l-6.121,28.903c-0.17,0.935-0.34,1.87-0.34,2.636
			c0,1.87,0.85,3.229,4.25,3.229s7.82-4.761,11.221-7.48h2.891c-3.91,3.91-13.516,15.217-20.146,15.217
			c-5.525,0-9.266-2.041-10.371-6.461c-2.551,3.485-6.375,6.97-11.561,6.97c-8.162,0-10.541-5.779-10.541-10.795
			c0-14.622,5.27-32.134,22.271-32.134c2.041,0,4.166,0.851,5.695,2.125l0.51-2.21H724.117z M694.875,335.524
			c0,5.1,2.805,6.035,4.93,6.035c1.955,0,3.824-1.87,5.439-4.251c0.086-0.85,0.256-1.784,0.512-2.805l4.76-22.527
			c-1.359-1.189-2.975-1.53-4.166-1.53C699.975,310.446,694.875,323.963,694.875,335.524z"/>
		<path display="inline" fill="#fff" d="M745.961,305.601l-0.936,4.251c3.061-2.38,6.461-4.251,10.031-4.251
			c3.826,0,6.121,2.21,6.121,5.441c0,2.975-2.209,6.631-6.375,6.631c-4.762,0-2.381-5.611-4.932-5.611
			c-2.549,0-3.91,0.935-5.865,2.721l-7.057,33.323h-12.24l9.012-42.505H745.961z"/>
		<path display="inline" fill="#fff" d="M758.453,334.589c0-10.796,4.592-29.753,20.063-29.753
			c6.971,0,10.881,2.891,10.881,8.841c0,10.371-11.135,16.321-19.211,17.342c-0.17,1.36-0.256,2.635-0.256,3.655
			c0,5.61,2.807,7.311,6.121,7.311c3.996,0,7.396-2.295,10.881-5.44c0,9.182-7.395,11.562-15.896,11.562
			C762.875,348.105,758.453,341.899,758.453,334.589z M781.322,309.342c-4.762,0-8.672,9.605-10.457,17.597
			c7.82-0.086,13.348-6.802,13.432-12.837C784.297,312.316,783.871,309.342,781.322,309.342z"/>
		<path display="inline" fill="#fff" d="M867.346,312.996c0,4.677-5.949,10.627-12.922,11.817
			c-6.459,23.292-18.191,23.801-26.521,23.801c-11.732,0-17.598-8.415-17.598-17.171c0-8.161,5.102-16.661,15.387-18.786
			c-5.779-3.146-8.414-8.076-8.414-12.922c0-7.735,6.799-15.387,18.871-15.387c7.906,0,15.641,3.146,15.641,11.392
			c0,4.505-1.615,7.82-5.951,7.82c-1.359,0-3.229-0.34-4.844-2.21c2.125-0.595,3.74-4.846,3.74-6.971c0-1.36-0.17-6.291-5.611-6.291
			c-6.205,0-10.371,4.761-10.371,10.456c0,4.931,3.23,10.456,11.221,14.026c-10.795,4.421-14.791,11.222-14.791,17.087
			c0,6.205,4.506,11.307,9.947,11.307c5.949,0,12.75-3.57,15.387-16.067c-2.127-0.084-4.082-0.425-6.037-0.425
			c-3.74,0-6.375,1.275-7.99,3.825l-0.596-0.085c1.701-6.97,7.65-11.985,16.406-11.985c2.381,0,4.336,0.425,6.461,0.425
			c3.146,0,6.631-1.105,8.076-3.656H867.346z"/>
		<path display="inline" fill="#fff" d="M917.92,292.339l-10.201,47.69c1.615,1.19,3.23,1.7,4.846,1.7
			c10.115,0,16.322-20.486,16.322-36.809c0-10.626-1.955-16.662-11.732-16.662c-13.771,0-22.951,7.736-22.951,20.658
			c0,4.334,1.105,5.015,1.189,5.779c-5.865,0-9.096-2.125-9.096-8.245c0-11.306,15.641-22.103,29.838-22.103
			c19.637,0,24.482,10.967,24.482,22.952c0,21.933-10.965,41.909-23.547,41.909c-3.23,0-6.717-1.359-10.371-4.505l-0.68,3.4h-12.242
			l11.561-54.065L917.92,292.339z"/>
		<path display="inline" fill="#fff" d="M959.061,341.984c3.23,0,6.121-2.295,8.586-6.206c0.34-6.035,3.314-9.52,6.461-9.775
			c3.059-5.525,5.016-13.091,6.461-19.552l12.326-2.55v1.189c0,14.026,5.779,18.277,5.779,28.223c0,0.595,0,1.19-0.084,1.785
			c2.379-2.125,4.504-4.335,5.525-5.525l2.209,2.89c-2.379,1.871-5.779,4.846-9.18,7.736c-2.211,4.676-7.057,7.906-14.963,7.906
			c-8.16,0-12.836-1.955-14.195-7.396c-3.484,4.42-7.906,7.396-14.791,7.396c-8.162,0-12.582-6.206-12.582-13.517
			c0-10.796,4.592-29.753,20.063-29.753c6.971,0,10.881,2.891,10.881,8.841c0,10.371-11.137,16.321-19.211,17.342
			c-0.172,1.36-0.256,2.635-0.256,3.655C952.09,340.284,955.744,341.984,959.061,341.984z M963.48,309.342
			c-4.76,0-8.67,9.605-10.455,17.597c7.82-0.086,13.346-6.802,13.43-12.837C966.455,312.316,966.031,309.342,963.48,309.342z
			 M975.041,336.629c-1.02,0-2.039-0.255-3.059-0.766c0,5.016,2.721,7.227,7.225,7.227c2.891,0,7.057-3.57,7.057-10.116
			c0-5.271-3.826-9.776-3.996-20.402c-1.359,4.166-2.551,9.606-4.42,13.856c2.039,0.681,2.805,2.21,2.805,4.761
			C980.652,334.419,978.018,336.629,975.041,336.629z"/>
		<path display="inline" fill="#fff" d="M1020.008,305.601l-6.123,28.903c-0.17,0.935-0.338,1.87-0.338,2.636
			c0,1.87,0.85,3.229,4.25,3.229s7.82-4.761,11.221-7.48h2.891c-3.91,3.91-13.518,15.217-20.148,15.217
			c-6.545,0-10.625-2.891-10.625-9.266c0-1.275,0.17-2.721,0.51-4.336l6.121-28.903H1020.008z M1016.096,287.579
			c3.74,0,6.801,3.061,6.801,6.801s-3.061,6.716-6.801,6.716s-6.715-2.976-6.715-6.716S1012.355,287.579,1016.096,287.579z"/>
		<path display="inline" fill="#fff" d="M1063.953,305.601l-7.99,37.659c5.441-2.806,10.285-6.631,13.092-13.006l-0.34,6.715
			c-1.105,5.525-7.057,8.671-13.771,11.137l-1.445,6.801c-2.551,12.156-9.691,14.451-15.303,14.451c-5.186,0-9.52-2.72-9.52-8.246
			c0-6.971,6.205-9.776,13.855-12.581l0.852-3.825c-2.551,2.295-5.867,4.08-9.777,4.08c-8.16,0-10.541-6.886-10.541-11.901
			c0-11.731,4.506-31.198,20.998-31.198c3.061,0,5.525,1.7,6.715,3.995l0.936-4.08H1063.953z M1036.242,362.727
			c1.699,0,3.91-2.55,4.93-7.565l0.51-2.551c-4.846,1.87-8.33,3.996-8.33,7.311C1033.352,361.111,1034.371,362.727,1036.242,362.727
			z M1033.521,335.27c0,4.079,2.465,5.354,6.205,5.354c1.701,0,3.484-1.275,5.102-2.975l5.014-23.548
			c-1.359-2.55-3.398-3.655-4.844-3.655C1036.752,310.446,1033.521,327.958,1033.521,335.27z"/>
		<path display="inline" fill="#fff" d="M1097.615,348.105c-5.525,0-8.672-2.891-8.672-9.266c0-1.361,0.17-2.721,0.51-4.336
			l3.23-15.302c0.17-0.766,0.256-1.529,0.256-2.21c0-3.061-1.615-5.016-3.91-5.016c-2.041,0-3.57,0.595-5.357,1.785l-7.225,34.344
			h-12.242l9.012-42.505h12.242l-1.021,4.591c3.486-2.55,7.396-4.591,11.137-4.591c4.676,0,9.775,4.931,9.775,10.711
			c0,0.681-0.084,1.275-0.17,1.955c-0.424,2.806-4.08,17.767-4.08,19.638c0,1.444,0.68,2.635,3.146,2.635
			c0.594,0,1.529,0,2.209-0.255C1104.076,347.596,1100.506,348.105,1097.615,348.105z"/>
	</g>
</g>
<text id="txt" transform="matrix(1 0 0 1 -164.9629 855.0938)" display="none"><tspan x="0" y="0" display="inline" fill="#fff" font-family="'Lobster1.3'" font-size="100">Software</tspan><tspan x="348.994" y="0" display="inline" fill="#fff" font-family="'Lobster1.3'" font-size="100"> </tspan><tspan x="370.694" y="0" display="inline" fill="#fff" font-family="'Lobster1.3'" font-size="100">&amp;</tspan><tspan x="438.894" y="0" display="inline" fill="#fff" font-family="'Lobster1.3'" font-size="100"> Design</tspan></text>
</svg>
